\relax 
\@writefile{toc}{\contentsline {section}{\numberline {1}Introduction}{1}}
\@writefile{toc}{\contentsline {section}{\numberline {2}Misconduct Science}{1}}
\@writefile{toc}{\contentsline {section}{\numberline {3}Semantics to the rescue?}{1}}
\@writefile{toc}{\contentsline {subsubsection}{\numberline {3.0.1}Why did it take so long?[a]}{1}}
\@writefile{toc}{\contentsline {subsection}{\numberline {3.1}Open science}{1}}
\@writefile{toc}{\contentsline {subsection}{\numberline {3.2}Open Data}{2}}
\@writefile{toc}{\contentsline {subsection}{\numberline {3.3}Semantic/Linked data}{2}}
\@writefile{toc}{\contentsline {subsection}{\numberline {3.4}IoT}{2}}
\@writefile{toc}{\contentsline {section}{\numberline {4}Further Discussion}{2}}
\@writefile{toc}{\contentsline {subsection}{\numberline {4.1}Getting things wrong}{2}}
\@writefile{toc}{\contentsline {subsection}{\numberline {4.2}Challenges of implementations(linked/open data)}{2}}
\@writefile{toc}{\contentsline {subsection}{\numberline {4.3}How to make the change}{2}}
\@writefile{toc}{\contentsline {section}{\numberline {5}Conclusion}{2}}
